    -19358         50
    -38716         49
    -58074         35
    -77432         44
    -96790         24
   -116148         33
    -96790         48
    -77432         44
    -58074         49
    -38716         40
         0         -1
