coast trim length:
       388
coast trim value:
      2418
      4836
      7254
      9672
     12090
     14508
     16926
     19344
     21762
     24180
     26598
     29016
     31434
     33852
     36270
     38688
     41106
     43524
     45942
     48360
     50778
     53196
     55614
     58032
     60450
     62868
     65286
     67704
     70122
     72540
     74958
     77376
     79794
     82212
     84630
     87048
     89466
     91884
     94302
     96720
     99138
    101556
    103974
    106392
    108810
    113646
    118482
    123318
    128154
    132990
    137826
    142662
    147498
    152334
    157170
    162006
    166842
    171678
    176514
    181350
    186186
    191022
    195858
    200694
    205530
    210366
    215202
    220038
    224874
    229710
    234546
    239382
    244218
    249054
    253890
    258726
    263562
    268398
    273234
    278070
    282906
    287742
    292578
    297414
    302250
    307086
    311922
    316758
    321594
    326430
    331266
    336102
    340938
    348192
    355446
    362700
    369954
    377208
    384462
    391716
    398970
    406224
    413478
    420732
    427986
    435240
    442494
    449748
    457002
    464256
    471510
    478764
    486018
    493272
    500526
    507780
    517452
    527124
    536796
    546468
    556140
    565812
    575484
    585156
    594828
    604500
    614172
    623844
    633516
    643188
    652860
    662532
    672204
    681876
    691548
    701220
    710892
    720564
    730236
    739908
    749580
    759252
    768924
    778596
    788268
    797940
    807612
    817284
    826956
    836628
    846300
    855972
    865644
    875316
    884988
    894660
    904332
    914004
    923676
    933348
    943020
    952692
    962364
    972036
    984126
    996216
   1008306
   1020396
   1032486
   1044576
   1056666
   1068756
   1080846
   1092936
   1105026
   1117116
   1129206
   1141296
   1153386
   1165476
   1177566
   1189656
   1201746
   1213836
   1225926
   1238016
   1250106
   1262196
   1274286
   1286376
   1298466
   1310556
   1322646
   1334736
   1346826
   1358916
   1371006
   1383096
   1395186
   1407276
   1419366
   1431456
   1443546
   1458054
   1472562
   1487070
   1501578
   1516086
   1530594
   1545102
   1559610
   1574118
   1588626
   1603134
   1617642
   1632150
   1646658
   1661166
   1675674
   1690182
   1704690
   1719198
   1733706
   1748214
   1762722
   1777230
   1789320
   1801410
   1813500
   1825590
   1837680
   1849770
   1861860
   1873950
   1886040
   1898130
   1910220
   1922310
   1934400
   1946490
   1958580
   1970670
   1982760
   1994850
   2006940
   2019030
   2031120
   2043210
   2055300
   2067390
   2079480
   2091570
   2103660
   2115750
   2125422
   2135094
   2144766
   2154438
   2164110
   2173782
   2183454
   2193126
   2202798
   2212470
   2222142
   2231814
   2241486
   2251158
   2260830
   2270502
   2280174
   2289846
   2299518
   2309190
   2318862
   2328534
   2338206
   2347878
   2357550
   2367222
   2376894
   2386566
   2396238
   2405910
   2415582
   2425254
   2434926
   2444598
   2454270
   2463942
   2471196
   2478450
   2485704
   2492958
   2500212
   2507466
   2514720
   2521974
   2529228
   2536482
   2543736
   2550990
   2558244
   2565498
   2572752
   2580006
   2587260
   2594514
   2601768
   2609022
   2616276
   2623530
   2630784
   2638038
   2645292
   2652546
   2659800
   2667054
   2674308
   2681562
   2688816
   2696070
   2703324
   2710578
   2717832
   2725086
   2732340
   2739594
   2746848
   2754102
   2761356
   2768610
   2775864
   2783118
   2790372
   2797626
   2804880
   2812134
   2819388
   2824224
   2829060
   2833896
   2838732
   2843568
   2848404
   2853240
   2858076
   2862912
   2867748
   2872584
   2877420
   2882256
   2887092
   2891928
   2896764
   2901600
   2906436
   2911272
   2916108
   2920944
   2925780
   2930616
   2935452
   2940288
   2945124
   2949960
   2954796
   2959632
   2964468
   2969304
   2974140
   2978976
   2983812
   2988648
   2993484
   2998320
   3003156
   3007992
   3012828
   3017664
   3022500
   3027336
   3032172
   3037008
   3041844
   3046680
   3051516
   3056352
coast trim length:
       416
coast trim value:
    -19358
    -38716
    -58074
    -77432
    -96790
   -116148
   -135506
   -154864
   -174222
   -193580
   -212938
   -232296
   -251654
   -271012
   -290370
   -309728
   -329086
   -348444
   -367802
   -387160
   -406518
   -425876
   -445234
   -464592
   -483950
   -503308
   -522666
   -542024
   -561382
   -580740
   -600098
   -619456
   -638814
   -658172
   -677530
   -696888
   -716246
   -735604
   -754962
   -774320
   -793678
   -813036
   -832394
   -851752
   -871110
   -890468
   -909826
   -929184
   -948542
   -967900
  -1006616
  -1045332
  -1084048
  -1122764
  -1161480
  -1200196
  -1238912
  -1277628
  -1316344
  -1355060
  -1393776
  -1432492
  -1471208
  -1509924
  -1548640
  -1587356
  -1626072
  -1664788
  -1703504
  -1742220
  -1780936
  -1819652
  -1858368
  -1897084
  -1935800
  -1974516
  -2013232
  -2051948
  -2090664
  -2129380
  -2168096
  -2206812
  -2245528
  -2284244
  -2322960
  -2361676
  -2400392
  -2439108
  -2477824
  -2516540
  -2555256
  -2593972
  -2632688
  -2671404
  -2710120
  -2748836
  -2787552
  -2826268
  -2864984
  -2923058
  -2981132
  -3039206
  -3097280
  -3155354
  -3213428
  -3271502
  -3329576
  -3387650
  -3445724
  -3503798
  -3561872
  -3619946
  -3678020
  -3736094
  -3794168
  -3852242
  -3910316
  -3968390
  -4026464
  -4084538
  -4142612
  -4200686
  -4258760
  -4316834
  -4374908
  -4432982
  -4491056
  -4549130
  -4607204
  -4665278
  -4723352
  -4781426
  -4839500
  -4897574
  -4975006
  -5052438
  -5129870
  -5207302
  -5284734
  -5362166
  -5439598
  -5517030
  -5594462
  -5671894
  -5749326
  -5826758
  -5904190
  -5981622
  -6059054
  -6136486
  -6213918
  -6291350
  -6368782
  -6446214
  -6523646
  -6601078
  -6678510
  -6755942
  -6833374
  -6910806
  -6988238
  -7065670
  -7143102
  -7220534
  -7297966
  -7375398
  -7452830
  -7530262
  -7607694
  -7685126
  -7762558
  -7839990
  -7917422
  -7994854
  -8072286
  -8149718
  -8227150
  -8304582
  -8401372
  -8498162
  -8594952
  -8691742
  -8788532
  -8885322
  -8982112
  -9078902
  -9175692
  -9272482
  -9369272
  -9466062
  -9562852
  -9659642
  -9756432
  -9853222
  -9950012
 -10046802
 -10143592
 -10240382
 -10337172
 -10433962
 -10530752
 -10627542
 -10743690
 -10859838
 -10975986
 -11092134
 -11208282
 -11324430
 -11440578
 -11556726
 -11672874
 -11789022
 -11905170
 -12021318
 -12137466
 -12253614
 -12369762
 -12485910
 -12602058
 -12718206
 -12834354
 -12950502
 -13066650
 -13182798
 -13298946
 -13415094
 -13531242
 -13647390
 -13763538
 -13879686
 -13995834
 -14111982
 -14228130
 -14344278
 -14460426
 -14557216
 -14654006
 -14750796
 -14847586
 -14944376
 -15041166
 -15137956
 -15234746
 -15331536
 -15428326
 -15525116
 -15621906
 -15718696
 -15815486
 -15912276
 -16009066
 -16105856
 -16202646
 -16299436
 -16396226
 -16493016
 -16589806
 -16686596
 -16783386
 -16880176
 -16976966
 -17073756
 -17170546
 -17267336
 -17364126
 -17460916
 -17557706
 -17654496
 -17751286
 -17848076
 -17944866
 -18041656
 -18138446
 -18235236
 -18332026
 -18428816
 -18525606
 -18622396
 -18719186
 -18815976
 -18912766
 -19009556
 -19106346
 -19183778
 -19261210
 -19338642
 -19416074
 -19493506
 -19570938
 -19648370
 -19725802
 -19803234
 -19880666
 -19958098
 -20035530
 -20112962
 -20190394
 -20267826
 -20345258
 -20422690
 -20500122
 -20577554
 -20654986
 -20732418
 -20809850
 -20887282
 -20964714
 -21042146
 -21119578
 -21197010
 -21274442
 -21351874
 -21429306
 -21506738
 -21584170
 -21661602
 -21739034
 -21816466
 -21893898
 -21971330
 -22048762
 -22126194
 -22203626
 -22281058
 -22358490
 -22435922
 -22513354
 -22571428
 -22629502
 -22687576
 -22745650
 -22803724
 -22861798
 -22919872
 -22977946
 -23036020
 -23094094
 -23152168
 -23210242
 -23268316
 -23326390
 -23384464
 -23442538
 -23500612
 -23558686
 -23616760
 -23674834
 -23732908
 -23790982
 -23849056
 -23907130
 -23965204
 -24023278
 -24081352
 -24139426
 -24197500
 -24255574
 -24313648
 -24371722
 -24429796
 -24487870
 -24545944
 -24604018
 -24662092
 -24720166
 -24778240
 -24836314
 -24894388
 -24952462
 -25010536
 -25068610
 -25126684
 -25184758
 -25242832
 -25300906
 -25358980
 -25397696
 -25436412
 -25475128
 -25513844
 -25552560
 -25591276
 -25629992
 -25668708
 -25707424
 -25746140
 -25784856
 -25823572
 -25862288
 -25901004
 -25939720
 -25978436
 -26017152
 -26055868
 -26094584
 -26133300
 -26172016
 -26210732
 -26249448
 -26288164
 -26326880
 -26365596
 -26404312
 -26443028
 -26481744
 -26520460
 -26559176
 -26597892
 -26636608
 -26675324
 -26714040
 -26752756
 -26791472
 -26830188
 -26868904
 -26907620
